{
	"documents": [
		{
			"municipalityId": "2281",
			"createdBy": "User4",
			"registrationNumber": "2024-2281-991",
			"created": "2024-02-05T08:31:00+01:00",
			"confidentiality": {
				"legalCitation": "Law ยง7.2",
				"confidential": false
			},
			"description": "Generated Document 7",
			"archive": false,
			"id": "019d0963-b6c6-49fb-9f88-31ef5e525a1c",
			"documentData": [],
			"type": "HOLIDAY_EXCHANGE",
			"revision": 1,
			"metadataList": [
				{
					"value": "Company A",
					"key": "EMPLOYEE_UNIT"
				},
				{
					"value": "Consultant",
					"key": "EMPLOYEE_TYPE"
				}
			]
		},
		{
			"municipalityId": "2281",
			"createdBy": "User2",
			"registrationNumber": "2024-2281-283",
			"created": "2024-01-23T08:31:00+01:00",
			"confidentiality": {
				"legalCitation": "Law ยง7.2",
				"confidential": false
			},
			"description": "Generated Document 4",
			"archive": false,
			"id": "1cc8599b-8726-4cf7-869d-36737044400c",
			"documentData": [],
			"type": "EMPLOYEE_CERTIFICATE",
			"revision": 1,
			"metadataList": [
				{
					"value": "Organization X",
					"key": "EMPLOYEE_UNIT"
				},
				{
					"value": "Manager",
					"key": "EMPLOYEE_TYPE"
				}
			]
		},
		{
			"municipalityId": "2281",
			"createdBy": "User2",
			"registrationNumber": "2024-2281-403",
			"created": "2024-02-22T08:31:00+01:00",
			"confidentiality": {
				"confidential": true
			},
			"description": "Generated Document 2",
			"archive": false,
			"id": "34095a16-68c5-48f8-ac1e-9d6b7dd08562",
			"documentData": [],
			"type": "EMPLOYEE_CERTIFICATE",
			"revision": 1,
			"metadataList": [
				{
					"value": "Company B",
					"key": "EMPLOYEE_UNIT"
				},
				{
					"value": "Developer",
					"key": "EMPLOYEE_TYPE"
				}
			]
		}
	],
	"_meta": {
		"totalRecords": 10,
		"limit": 3,
		"count": 3,
		"totalPages": 4,
		"page": 0
	}
}
