{
	"documents": [
		{
			"municipalityId": "2281",
			"createdBy": "User4",
			"registrationNumber": "2024-2281-755",
			"created": "2024-01-10T08:33:07+01:00",
			"confidentiality": {
				"legalCitation": "Law §7.2",
				"confidential": false
			},
			"description": "Generated Document 15",
			"archive": false,
			"id": "fe9a0099-e407-4350-aaf2-f47edb20a770",
			"documentData": [],
			"type": "MISSPELLED",
			"revision": 1,
			"metadataList": [
				{
					"value": "Company B",
					"key": "EMPLOYEE_UNIT"
				},
				{
					"value": "Manager",
					"key": "EMPLOYEE_TYPE"
				}
			]
		},
		{
			"municipalityId": "2281",
			"createdBy": "User5",
			"registrationNumber": "2024-2281-755",
			"created": "2024-04-06T08:33:07+02:00",
			"confidentiality": {
				"legalCitation": "Law §7.2",
				"confidential": false
			},
			"description": "Generated Document 20",
			"archive": false,
			"id": "fe6a0099-e407-4350-aaf2-f47edb20a770",
			"documentData": [],
			"type": "CONFIDENTIALITY_AGREEMENT",
			"revision": 2,
			"metadataList": []
		},
		{
			"municipalityId": "2281",
			"createdBy": "User2",
			"registrationNumber": "2024-2281-632",
			"created": "2024-01-28T08:33:07+01:00",
			"confidentiality": {
				"legalCitation": "Law §7.2",
				"confidential": false
			},
			"description": "Generated Document 12",
			"archive": false,
			"id": "f182fd95-7a17-4cb7-843b-abf1f8ce8ce7",
			"documentData": [],
			"type": "CONFIDENTIALITY_AGREEMENT",
			"revision": 1,
			"metadataList": [
				{
					"value": "Company B",
					"key": "EMPLOYEE_UNIT"
				},
				{
					"value": "Developer",
					"key": "EMPLOYEE_TYPE"
				}
			]
		},
		{
			"municipalityId": "2281",
			"createdBy": "User1",
			"registrationNumber": "2024-2281-200",
			"created": "2024-08-23T08:31:00+02:00",
			"confidentiality": {
				"legalCitation": "Law §7.2",
				"confidential": false
			},
			"description": "Generated Document 5",
			"archive": true,
			"id": "e4c860ad-fce3-431e-965f-0229e5610fb7",
			"documentData": [],
			"type": "EMPLOYEE_CERTIFICATE",
			"revision": 1,
			"metadataList": [
				{
					"value": "Startup Y",
					"key": "EMPLOYEE_UNIT"
				},
				{
					"value": "Analyst",
					"key": "EMPLOYEE_TYPE"
				}
			]
		},
		{
			"municipalityId": "2281",
			"createdBy": "User4",
			"registrationNumber": "2024-2281-382",
			"created": "2024-06-02T08:31:00+02:00",
			"confidentiality": {
				"legalCitation": "Law §7.2",
				"confidential": false
			},
			"description": "Generated Document 8",
			"archive": false,
			"id": "df8e4237-4369-45e7-a365-3f46741814d0",
			"documentData": [],
			"type": "MISSPELLED",
			"revision": 1,
			"metadataList": [
				{
					"value": "Organization X",
					"key": "EMPLOYEE_UNIT"
				},
				{
					"value": "Consultant",
					"key": "EMPLOYEE_TYPE"
				}
			]
		},
		{
			"municipalityId": "2281",
			"createdBy": "User6",
			"registrationNumber": "2024-2281-252",
			"created": "2024-08-27T08:33:07+02:00",
			"confidentiality": {
				"legalCitation": "Law §7.1",
				"confidential": false
			},
			"description": "Generated Document 16",
			"archive": true,
			"id": "db983069-1a9f-4e6a-8b21-865ebd2fb902",
			"documentData": [],
			"type": "EMPLOYEE_CERTIFICATE",
			"revision": 1,
			"metadataList": [
				{
					"value": "Company B",
					"key": "EMPLOYEE_UNIT"
				},
				{
					"value": "Consultant",
					"key": "EMPLOYEE_TYPE"
				}
			]
		},
		{
			"municipalityId": "2281",
			"createdBy": "User2",
			"registrationNumber": "2024-2281-252",
			"created": "2024-04-06T08:33:07+02:00",
			"confidentiality": {
				"legalCitation": "Law §7.2",
				"confidential": false
			},
			"description": "Generated Document 20",
			"archive": false,
			"id": "db933069-1a9f-4e6a-8b21-865ebd2fb902",
			"documentData": [],
			"type": "CONFIDENTIALITY_AGREEMENT",
			"revision": 2,
			"metadataList": []
		},
		{
			"municipalityId": "2281",
			"createdBy": "User3",
			"registrationNumber": "2024-2281-370",
			"created": "2024-09-10T08:31:00+02:00",
			"confidentiality": {"confidential": false},
			"description": "Generated Document 3",
			"archive": true,
			"id": "c3ee6cd8-d9e1-499c-b483-a9956b43ab7d",
			"documentData": [],
			"type": "EMPLOYEE_CERTIFICATE",
			"revision": 1,
			"metadataList": [
				{
					"value": "Startup Y",
					"key": "EMPLOYEE_UNIT"
				},
				{
					"value": "Manager",
					"key": "EMPLOYEE_TYPE"
				}
			]
		},
		{
			"municipalityId": "2281",
			"createdBy": "User1",
			"registrationNumber": "2024-2281-232",
			"created": "2024-08-31T08:33:07+02:00",
			"confidentiality": {"confidential": false},
			"description": "Generated Document 13",
			"archive": false,
			"id": "9f2e05c4-a06d-4fed-b487-2003c591bc6a",
			"documentData": [],
			"type": "MISSPELLED",
			"revision": 1,
			"metadataList": [
				{
					"value": "Organization X",
					"key": "EMPLOYEE_UNIT"
				},
				{
					"value": "Engineer",
					"key": "EMPLOYEE_TYPE"
				}
			]
		},
		{
			"municipalityId": "2281",
			"createdBy": "User2",
			"registrationNumber": "2023-2281-123",
			"created": "2023-06-28T12:02:00+02:00",
			"confidentiality": {"confidential": false},
			"description": "Document 1",
			"archive": false,
			"id": "8efd63a3-b525-4581-8b0b-9759f381a5a5",
			"documentData": [{
				"fileName": "file2.jpg",
				"fileSizeInBytes": 5068,
				"id": "50167fa9-6b50-428e-9383-b6cbfaffc63b",
				"mimeType": "image/jpeg"
			}],
			"type": "EMPLOYEE_CERTIFICATE",
			"revision": 2,
			"metadataList": [
				{
					"value": "value-1",
					"key": "document1-key1"
				},
				{
					"value": "value-2",
					"key": "document1-key2"
				},
				{
					"value": "Company C",
					"key": "EMPLOYEE_UNIT"
				},
				{
					"value": "Developer",
					"key": "EMPLOYEE_TYPE"
				}
			]
		},
		{
			"municipalityId": "2281",
			"createdBy": "User6",
			"registrationNumber": "2024-2281-139",
			"created": "2024-04-06T08:33:07+02:00",
			"confidentiality": {
				"legalCitation": "Law §7.2",
				"confidential": false
			},
			"description": "Generated Document 20",
			"archive": false,
			"id": "8ad5ecbf-15e5-4572-9b80-96bbfc2145b6",
			"documentData": [{
				"fileName": "to-be-removed.jpg",
				"fileSizeInBytes": 5068,
				"id": "abc078aa-9335-4b21-b04c-630e27ade51e",
				"mimeType": "image/jpeg"
			}],
			"type": "CONFIDENTIALITY_AGREEMENT",
			"revision": 2,
			"metadataList": []
		},
		{
			"municipalityId": "2281",
			"createdBy": "User4",
			"registrationNumber": "2024-2281-639",
			"created": "2024-08-29T08:31:00+02:00",
			"confidentiality": {"confidential": false},
			"description": "Generated Document 6",
			"archive": false,
			"id": "84ae9dbe-159a-472f-9dc7-8ecb03c2c3c1",
			"documentData": [],
			"type": "HOLIDAY_EXCHANGE",
			"revision": 1,
			"metadataList": [
				{
					"value": "Startup Y",
					"key": "EMPLOYEE_UNIT"
				},
				{
					"value": "Analyst",
					"key": "EMPLOYEE_TYPE"
				}
			]
		},
		{
			"municipalityId": "2281",
			"createdBy": "User2",
			"registrationNumber": "2024-2281-232",
			"created": "2024-04-06T08:33:07+02:00",
			"confidentiality": {
				"legalCitation": "Law §7.2",
				"confidential": false
			},
			"description": "Generated Document 20",
			"archive": false,
			"id": "7f2e05c4-a06d-4fed-b487-2003c591bc6a",
			"documentData": [],
			"type": "CONFIDENTIALITY_AGREEMENT",
			"revision": 2,
			"metadataList": []
		},
		{
			"municipalityId": "2281",
			"createdBy": "User2",
			"registrationNumber": "2024-2281-810",
			"created": "2024-07-02T08:31:00+02:00",
			"confidentiality": {
				"legalCitation": "Law §7.2",
				"confidential": false
			},
			"description": "Generated Document 9",
			"archive": true,
			"id": "69d31844-1810-4857-bdb9-f7c533b675b1",
			"documentData": [],
			"type": "EMPLOYEE_CERTIFICATE",
			"revision": 1,
			"metadataList": [
				{
					"value": "Company A",
					"key": "EMPLOYEE_UNIT"
				},
				{
					"value": "Developer",
					"key": "EMPLOYEE_TYPE"
				}
			]
		},
		{
			"municipalityId": "2281",
			"createdBy": "User5",
			"registrationNumber": "2024-2281-417",
			"created": "2024-06-23T08:31:00+02:00",
			"confidentiality": {
				"legalCitation": "Law §7.1",
				"confidential": false
			},
			"description": "Generated Document 1",
			"archive": false,
			"id": "676eaf7a-d609-4885-9743-2dbcdffe6628",
			"documentData": [],
			"type": "MISSPELLED",
			"revision": 1,
			"metadataList": [
				{
					"value": "Company C",
					"key": "EMPLOYEE_UNIT"
				},
				{
					"value": "Manager",
					"key": "EMPLOYEE_TYPE"
				}
			]
		},
		{
			"municipalityId": "2281",
			"createdBy": "User3",
			"registrationNumber": "2023-2281-123",
			"created": "2023-06-28T12:03:00+02:00",
			"confidentiality": {"confidential": false},
			"description": "Document 1",
			"archive": true,
			"id": "612dc8d0-e6b7-426c-abcc-c9b49ae1e7e2",
			"documentData": [{
				"fileName": "file3.jpg",
				"fileSizeInBytes": 5068,
				"id": "4f0a04af-942d-4ad2-b2d9-151887fc995c",
				"mimeType": "image/jpeg"
			}],
			"type": "EMPLOYEE_CERTIFICATE",
			"revision": 3,
			"metadataList": [
				{
					"value": "value-1",
					"key": "document1-key1"
				},
				{
					"value": "value-2",
					"key": "document1-key2"
				},
				{
					"value": "value-3",
					"key": "document1-key3"
				},
				{
					"value": "value-4",
					"key": "document1-key4"
				}
			]
		},
		{
			"municipalityId": "2281",
			"createdBy": "User3",
			"registrationNumber": "2024-2281-139",
			"created": "2024-04-06T08:33:07+02:00",
			"confidentiality": {
				"legalCitation": "Law §7.2",
				"confidential": false
			},
			"description": "Generated Document 20",
			"archive": false,
			"id": "4ad5ecbf-15e5-4572-9b80-96bbfc2145b6",
			"documentData": [],
			"type": "CONFIDENTIALITY_AGREEMENT",
			"revision": 1,
			"metadataList": [
				{
					"value": "Startup Y",
					"key": "EMPLOYEE_UNIT"
				},
				{
					"value": "Developer",
					"key": "EMPLOYEE_TYPE"
				}
			]
		},
		{
			"municipalityId": "2281",
			"createdBy": "User1",
			"registrationNumber": "2024-2281-646",
			"created": "2024-06-28T08:33:07+02:00",
			"confidentiality": {
				"legalCitation": "Law §7.1",
				"confidential": false
			},
			"description": "Generated Document 14",
			"archive": false,
			"id": "37a7aefa-5f24-460e-817b-f089b7dd84be",
			"documentData": [],
			"type": "MISSPELLED",
			"revision": 1,
			"metadataList": [
				{
					"value": "Organization X",
					"key": "EMPLOYEE_UNIT"
				},
				{
					"value": "Consultant",
					"key": "EMPLOYEE_TYPE"
				}
			]
		},
		{
			"municipalityId": "2281",
			"createdBy": "User2",
			"registrationNumber": "2024-2281-797",
			"created": "2024-04-06T08:33:07+02:00",
			"confidentiality": {
				"legalCitation": "Law §7.2",
				"confidential": false
			},
			"description": "Generated Document 20",
			"archive": false,
			"id": "22a4ecd5-b406-49d3-b7de-0922ff2f3b95",
			"documentData": [],
			"type": "CONFIDENTIALITY_AGREEMENT",
			"revision": 2,
			"metadataList": []
		},
		{
			"municipalityId": "2281",
			"createdBy": "User2",
			"registrationNumber": "2024-2281-283",
			"created": "2024-01-23T08:31:00+01:00",
			"confidentiality": {
				"legalCitation": "Law §7.2",
				"confidential": false
			},
			"description": "Generated Document 4",
			"archive": false,
			"id": "1cc8599b-8726-4cf7-869d-36737044400c",
			"documentData": [],
			"type": "EMPLOYEE_CERTIFICATE",
			"revision": 1,
			"metadataList": [
				{
					"value": "Organization X",
					"key": "EMPLOYEE_UNIT"
				},
				{
					"value": "Manager",
					"key": "EMPLOYEE_TYPE"
				}
			]
		}
	],
	"_meta": {
		"totalRecords": 23,
		"limit": 20,
		"count": 20,
		"totalPages": 2,
		"page": 0
	}
}
