{
  "documents": [
    {
      "id": "612dc8d0-e6b7-426c-abcc-c9b49ae1e7e2",
      "municipalityId": "2281",
      "registrationNumber": "2023-2281-123",
      "revision": 3,
      "confidentiality": {
        "confidential": false
      },
      "description": "Document 1",
      "created": "2023-06-28T12:03:00+02:00",
      "createdBy": "User3",
      "archive": true,
      "metadataList": [
        {
          "key": "document1-key1",
          "value": "value-1"
        },
        {
          "key": "document1-key2",
          "value": "value-2"
        },
        {
          "key": "document1-key3",
          "value": "value-3"
        },
        {
          "key": "document1-key4",
          "value": "value-4"
        }
      ],
      "documentData": [
        {
          "id": "4f0a04af-942d-4ad2-b2d9-151887fc995c",
          "fileName": "file3.jpg",
          "mimeType": "image/jpeg",
          "fileSizeInBytes": 5068
        }
      ],
      "type": "EMPLOYEE_CERTIFICATE"
    },
    {
      "id": "8efd63a3-b525-4581-8b0b-9759f381a5a5",
      "municipalityId": "2281",
      "registrationNumber": "2023-2281-123",
      "revision": 2,
      "confidentiality": {
        "confidential": false
      },
      "description": "Document 1",
      "created": "2023-06-28T12:02:00+02:00",
      "createdBy": "User2",
      "archive": false,
      "metadataList": [
        {
          "key": "document1-key1",
          "value": "value-1"
        },
        {
          "key": "document1-key2",
          "value": "value-2"
        },
        {
          "key": "EMPLOYEE_UNIT",
          "value": "Company C"
        },
        {
          "key": "EMPLOYEE_TYPE",
          "value": "Developer"
        }
      ],
      "documentData": [
        {
          "id": "50167fa9-6b50-428e-9383-b6cbfaffc63b",
          "fileName": "file2.jpg",
          "mimeType": "image/jpeg",
          "fileSizeInBytes": 5068
        }
      ],
      "type": "EMPLOYEE_CERTIFICATE"
    },
    {
      "id": "03d33a6a-bc8c-410c-95f6-2c890822967d",
      "municipalityId": "2281",
      "registrationNumber": "2024-2281-999",
      "revision": 1,
      "confidentiality": {
        "confidential": true,
        "legalCitation": "Law §7.1"
      },
      "description": "Document 2",
      "created": "2023-06-28T12:01:00+02:00",
      "createdBy": "User4",
      "archive": true,
      "metadataList": [
        {
          "key": "document2-key1",
          "value": "value-1"
        },
        {
          "key": "document2-key2",
          "value": "value-2"
        },
        {
          "key": "document2-key3",
          "value": "value-3"
        },
        {
          "key": "EMPLOYEE_UNIT",
          "value": "Organization X"
        },
        {
          "key": "EMPLOYEE_TYPE",
          "value": "Analyst"
        }
      ],
      "documentData": [
        {
          "id": "8f7be4bb-ef79-4a16-95bf-a0619e320745",
          "fileName": "file4.jpg",
          "mimeType": "image/jpeg",
          "fileSizeInBytes": 5068
        }
      ],
      "type": "HOLIDAY_EXCHANGE"
    },
    {
      "id": "8ad5ecbf-15e5-4572-9b80-96bbfc2145b6",
      "municipalityId": "2281",
      "registrationNumber": "2024-2281-139",
      "revision": 2,
      "confidentiality": {
        "confidential": false,
        "legalCitation": "Law §7.2"
      },
      "description": "Generated Document 20",
      "created": "2024-04-06T08:33:07+02:00",
      "createdBy": "User6",
      "archive": false,
      "metadataList": [],
      "documentData": [
        {
          "id": "abc078aa-9335-4b21-b04c-630e27ade51e",
          "fileName": "to-be-removed.jpg",
          "mimeType": "image/jpeg",
          "fileSizeInBytes": 5068
        }
      ],
      "type": "CONFIDENTIALITY_AGREEMENT"
    },
    {
      "id": "435bb041-2b02-4bb3-b3e7-3782a13f47d5",
      "municipalityId": "2281",
      "registrationNumber": "2024-2281-999",
      "revision": 2,
      "confidentiality": {
        "confidential": true,
        "legalCitation": "Law §7.2"
      },
      "description": "Document 2",
      "created": "2023-06-28T12:01:00+02:00",
      "createdBy": "User5",
      "archive": true,
      "metadataList": [
        {
          "key": "document2-key1",
          "value": "value-1"
        },
        {
          "key": "document2-key2",
          "value": "value-2"
        },
        {
          "key": "EMPLOYEE_UNIT",
          "value": "Startup Y"
        },
        {
          "key": "EMPLOYEE_TYPE",
          "value": "Developer"
        }
      ],
      "documentData": [
        {
          "id": "bd239ee1-27b8-43e7-bb0d-e4ba09b7220e",
          "fileName": "file5.jpg",
          "mimeType": "image/jpeg",
          "fileSizeInBytes": 5068
        }
      ],
      "type": "HOLIDAY_EXCHANGE"
    },
    {
      "id": "159c10bf-1b32-471b-b2d3-c4b4b13ea152",
      "municipalityId": "2281",
      "registrationNumber": "2023-2281-123",
      "revision": 1,
      "confidentiality": {
        "confidential": false
      },
      "description": "Document 1",
      "created": "2023-06-28T12:01:00+02:00",
      "createdBy": "User1",
      "archive": false,
      "metadataList": [
        {
          "key": "document1-key1",
          "value": "value-1"
        },
        {
          "key": "EMPLOYEE_UNIT",
          "value": "Company B"
        },
        {
          "key": "EMPLOYEE_TYPE",
          "value": "Manager"
        }
      ],
      "documentData": [
        {
          "id": "faa3547e-f775-4799-9ac0-e07fab1df362",
          "fileName": "file1.jpg",
          "mimeType": "image/jpeg",
          "fileSizeInBytes": 5068
        }
      ],
      "type": "EMPLOYEE_CERTIFICATE"
    },
    {
      "id": "019d0963-b6c6-49fb-9f88-31ef5e525a1c",
      "municipalityId": "2281",
      "registrationNumber": "2024-2281-991",
      "revision": 1,
      "confidentiality": {
        "confidential": false,
        "legalCitation": "Law §7.2"
      },
      "description": "Generated Document 7",
      "created": "2024-02-05T08:31:00+01:00",
      "createdBy": "User4",
      "archive": false,
      "metadataList": [
        {
          "key": "EMPLOYEE_UNIT",
          "value": "Company A"
        },
        {
          "key": "EMPLOYEE_TYPE",
          "value": "Consultant"
        }
      ],
      "documentData": [],
      "type": "HOLIDAY_EXCHANGE"
    },
    {
      "id": "1a3e2060-c190-4c91-b221-b380493e5f4b",
      "municipalityId": "2281",
      "registrationNumber": "2024-2281-369",
      "revision": 1,
      "confidentiality": {
        "confidential": false,
        "legalCitation": "Law §7.2"
      },
      "description": "Generated Document 17",
      "created": "2023-12-07T08:33:07+01:00",
      "createdBy": "User3",
      "archive": false,
      "metadataList": [
        {
          "key": "EMPLOYEE_UNIT",
          "value": "Company B"
        },
        {
          "key": "EMPLOYEE_TYPE",
          "value": "Developer"
        }
      ],
      "documentData": [],
      "type": "MISSPELLED"
    },
    {
      "id": "1cc8599b-8726-4cf7-869d-36737044400c",
      "municipalityId": "2281",
      "registrationNumber": "2024-2281-283",
      "revision": 1,
      "confidentiality": {
        "confidential": false,
        "legalCitation": "Law §7.2"
      },
      "description": "Generated Document 4",
      "created": "2024-01-23T08:31:00+01:00",
      "createdBy": "User2",
      "archive": false,
      "metadataList": [
        {
          "key": "EMPLOYEE_UNIT",
          "value": "Organization X"
        },
        {
          "key": "EMPLOYEE_TYPE",
          "value": "Manager"
        }
      ],
      "documentData": [],
      "type": "EMPLOYEE_CERTIFICATE"
    },
    {
      "id": "22a4ecd5-b406-49d3-b7de-0922ff2f3b95",
      "municipalityId": "2281",
      "registrationNumber": "2024-2281-797",
      "revision": 2,
      "confidentiality": {
        "confidential": false,
        "legalCitation": "Law §7.2"
      },
      "description": "Generated Document 20",
      "created": "2024-04-06T08:33:07+02:00",
      "createdBy": "User2",
      "archive": false,
      "metadataList": [],
      "documentData": [],
      "type": "CONFIDENTIALITY_AGREEMENT"
    },
    {
      "id": "34095a16-68c5-48f8-ac1e-9d6b7dd08562",
      "municipalityId": "2281",
      "registrationNumber": "2024-2281-403",
      "revision": 1,
      "confidentiality": {
        "confidential": true
      },
      "description": "Generated Document 2",
      "created": "2024-02-22T08:31:00+01:00",
      "createdBy": "User2",
      "archive": false,
      "metadataList": [
        {
          "key": "EMPLOYEE_UNIT",
          "value": "Company B"
        },
        {
          "key": "EMPLOYEE_TYPE",
          "value": "Developer"
        }
      ],
      "documentData": [],
      "type": "EMPLOYEE_CERTIFICATE"
    },
    {
      "id": "37a7aefa-5f24-460e-817b-f089b7dd84be",
      "municipalityId": "2281",
      "registrationNumber": "2024-2281-646",
      "revision": 1,
      "confidentiality": {
        "confidential": false,
        "legalCitation": "Law §7.1"
      },
      "description": "Generated Document 14",
      "created": "2024-06-28T08:33:07+02:00",
      "createdBy": "User1",
      "archive": false,
      "metadataList": [
        {
          "key": "EMPLOYEE_UNIT",
          "value": "Organization X"
        },
        {
          "key": "EMPLOYEE_TYPE",
          "value": "Consultant"
        }
      ],
      "documentData": [],
      "type": "MISSPELLED"
    },
    {
      "id": "488c4523-4ae1-41ea-8a3a-cf991999b12f",
      "municipalityId": "2281",
      "registrationNumber": "2024-2281-491",
      "revision": 1,
      "confidentiality": {
        "confidential": true,
        "legalCitation": "Law §7.1"
      },
      "description": "Generated Document 10",
      "created": "2023-11-17T08:31:00+01:00",
      "createdBy": "User1",
      "archive": false,
      "metadataList": [
        {
          "key": "EMPLOYEE_UNIT",
          "value": "Startup Y"
        },
        {
          "key": "EMPLOYEE_TYPE",
          "value": "Developer"
        }
      ],
      "documentData": [],
      "type": "CONFIDENTIALITY_AGREEMENT"
    },
    {
      "id": "4ad5ecbf-15e5-4572-9b80-96bbfc2145b6",
      "municipalityId": "2281",
      "registrationNumber": "2024-2281-139",
      "revision": 1,
      "confidentiality": {
        "confidential": false,
        "legalCitation": "Law §7.2"
      },
      "description": "Generated Document 20",
      "created": "2024-04-06T08:33:07+02:00",
      "createdBy": "User3",
      "archive": false,
      "metadataList": [
        {
          "key": "EMPLOYEE_UNIT",
          "value": "Startup Y"
        },
        {
          "key": "EMPLOYEE_TYPE",
          "value": "Developer"
        }
      ],
      "documentData": [],
      "type": "CONFIDENTIALITY_AGREEMENT"
    },
    {
      "id": "5a728f56-2fb1-460e-9158-7a4d5775e80f",
      "municipalityId": "2281",
      "registrationNumber": "2024-2281-465",
      "revision": 1,
      "confidentiality": {
        "confidential": true
      },
      "description": "Generated Document 19",
      "created": "2024-08-03T08:33:07+02:00",
      "createdBy": "User4",
      "archive": false,
      "metadataList": [
        {
          "key": "EMPLOYEE_UNIT",
          "value": "Company B"
        },
        {
          "key": "EMPLOYEE_TYPE",
          "value": "Analyst"
        }
      ],
      "documentData": [],
      "type": "EMPLOYEE_CERTIFICATE"
    },
    {
      "id": "676eaf7a-d609-4885-9743-2dbcdffe6628",
      "municipalityId": "2281",
      "registrationNumber": "2024-2281-417",
      "revision": 1,
      "confidentiality": {
        "confidential": false,
        "legalCitation": "Law §7.1"
      },
      "description": "Generated Document 1",
      "created": "2024-06-23T08:31:00+02:00",
      "createdBy": "User5",
      "archive": false,
      "metadataList": [
        {
          "key": "EMPLOYEE_UNIT",
          "value": "Company C"
        },
        {
          "key": "EMPLOYEE_TYPE",
          "value": "Manager"
        }
      ],
      "documentData": [],
      "type": "MISSPELLED"
    },
    {
      "id": "69d31844-1810-4857-bdb9-f7c533b675b1",
      "municipalityId": "2281",
      "registrationNumber": "2024-2281-810",
      "revision": 1,
      "confidentiality": {
        "confidential": false,
        "legalCitation": "Law §7.2"
      },
      "description": "Generated Document 9",
      "created": "2024-07-02T08:31:00+02:00",
      "createdBy": "User2",
      "archive": true,
      "metadataList": [
        {
          "key": "EMPLOYEE_UNIT",
          "value": "Company A"
        },
        {
          "key": "EMPLOYEE_TYPE",
          "value": "Developer"
        }
      ],
      "documentData": [],
      "type": "EMPLOYEE_CERTIFICATE"
    },
    {
      "id": "7f2e05c4-a06d-4fed-b487-2003c591bc6a",
      "municipalityId": "2281",
      "registrationNumber": "2024-2281-232",
      "revision": 2,
      "confidentiality": {
        "confidential": false,
        "legalCitation": "Law §7.2"
      },
      "description": "Generated Document 20",
      "created": "2024-04-06T08:33:07+02:00",
      "createdBy": "User2",
      "archive": false,
      "metadataList": [],
      "documentData": [],
      "type": "CONFIDENTIALITY_AGREEMENT"
    },
    {
      "id": "82a4ecd5-b406-49d3-b7de-0922ff2f3b95",
      "municipalityId": "2281",
      "registrationNumber": "2024-2281-797",
      "revision": 1,
      "confidentiality": {
        "confidential": true,
        "legalCitation": "Law §7.1"
      },
      "description": "Generated Document 11",
      "created": "2024-03-08T08:33:07+01:00",
      "createdBy": "User6",
      "archive": false,
      "metadataList": [
        {
          "key": "EMPLOYEE_UNIT",
          "value": "Organization X"
        },
        {
          "key": "EMPLOYEE_TYPE",
          "value": "Analyst"
        }
      ],
      "documentData": [],
      "type": "MISSPELLED"
    },
    {
      "id": "84ae9dbe-159a-472f-9dc7-8ecb03c2c3c1",
      "municipalityId": "2281",
      "registrationNumber": "2024-2281-639",
      "revision": 1,
      "confidentiality": {
        "confidential": false
      },
      "description": "Generated Document 6",
      "created": "2024-08-29T08:31:00+02:00",
      "createdBy": "User4",
      "archive": false,
      "metadataList": [
        {
          "key": "EMPLOYEE_UNIT",
          "value": "Startup Y"
        },
        {
          "key": "EMPLOYEE_TYPE",
          "value": "Analyst"
        }
      ],
      "documentData": [],
      "type": "HOLIDAY_EXCHANGE"
    }
  ],
  "_meta": {
    "page": 0,
    "limit": 20,
    "count": 20,
    "totalRecords": 30,
    "totalPages": 2
  }
}
