{
	"documents": [
		{
			"municipalityId": "2281",
			"createdBy": "User5",
			"registrationNumber": "2024-2281-999",
			"created": "2023-06-28T12:01:00+02:00",
			"confidentiality": {
				"legalCitation": "Law ยง7.2",
				"confidential": true
			},
			"description": "Document 2",
			"archive": true,
			"id": "435bb041-2b02-4bb3-b3e7-3782a13f47d5",
			"documentData": [{
				"fileName": "file5.jpg",
				"fileSizeInBytes": 5068,
				"id": "bd239ee1-27b8-43e7-bb0d-e4ba09b7220e",
				"mimeType": "image/jpeg"
			}],
			"type": "HOLIDAY_EXCHANGE",
			"revision": 2,
			"metadataList": [
				{
					"value": "value-1",
					"key": "document2-key1"
				},
				{
					"value": "value-2",
					"key": "document2-key2"
				},
				{
					"value": "Startup Y",
					"key": "EMPLOYEE_UNIT"
				},
				{
					"value": "Developer",
					"key": "EMPLOYEE_TYPE"
				}
			]
		},
		{
			"municipalityId": "2281",
			"createdBy": "User5",
			"registrationNumber": "2024-2281-417",
			"created": "2024-06-23T08:31:00+02:00",
			"confidentiality": {
				"legalCitation": "Law ยง7.1",
				"confidential": false
			},
			"description": "Generated Document 1",
			"archive": false,
			"id": "676eaf7a-d609-4885-9743-2dbcdffe6628",
			"documentData": [],
			"type": "MISSPELLED",
			"revision": 1,
			"metadataList": [
				{
					"value": "Company C",
					"key": "EMPLOYEE_UNIT"
				},
				{
					"value": "Manager",
					"key": "EMPLOYEE_TYPE"
				}
			]
		},
		{
			"municipalityId": "2281",
			"createdBy": "User2",
			"registrationNumber": "2024-2281-403",
			"created": "2024-02-22T08:31:00+01:00",
			"confidentiality": {"confidential": true},
			"description": "Generated Document 2",
			"archive": false,
			"id": "34095a16-68c5-48f8-ac1e-9d6b7dd08562",
			"documentData": [],
			"type": "EMPLOYEE_CERTIFICATE",
			"revision": 1,
			"metadataList": [
				{
					"value": "Company B",
					"key": "EMPLOYEE_UNIT"
				},
				{
					"value": "Developer",
					"key": "EMPLOYEE_TYPE"
				}
			]
		}
	],
	"_meta": {
		"totalRecords": 16,
		"limit": 3,
		"count": 3,
		"totalPages": 6,
		"page": 0
	}
}
