{
	"documents": [
		{
			"municipalityId": "2281",
			"createdBy": "User4",
			"registrationNumber": "2024-2281-991",
			"created": "2024-02-05T08:31:00+01:00",
			"confidentiality": {
				"legalCitation": "Law ยง7.2",
				"confidential": false
			},
			"description": "Generated Document 7",
			"archive": false,
			"id": "019d0963-b6c6-49fb-9f88-31ef5e525a1c",
			"documentData": [],
			"type": "HOLIDAY_EXCHANGE",
			"revision": 1,
			"metadataList": [
				{
					"value": "Company A",
					"key": "EMPLOYEE_UNIT"
				},
				{
					"value": "Consultant",
					"key": "EMPLOYEE_TYPE"
				}
			]
		},
		{
			"municipalityId": "2281",
			"createdBy": "User4",
			"registrationNumber": "2024-2281-999",
			"created": "2023-06-28T12:01:00+02:00",
			"confidentiality": {
				"legalCitation": "Law ยง7.1",
				"confidential": true
			},
			"description": "Document 2",
			"archive": true,
			"id": "03d33a6a-bc8c-410c-95f6-2c890822967d",
			"documentData": [
				{
					"fileName": "file4.jpg",
					"fileSizeInBytes": 5068,
					"id": "8f7be4bb-ef79-4a16-95bf-a0619e320745",
					"mimeType": "image/jpeg"
				}
			],
			"type": "HOLIDAY_EXCHANGE",
			"revision": 1,
			"metadataList": [
				{
					"value": "value-1",
					"key": "document2-key1"
				},
				{
					"value": "value-2",
					"key": "document2-key2"
				},
				{
					"value": "value-3",
					"key": "document2-key3"
				},
				{
					"value": "Organization X",
					"key": "EMPLOYEE_UNIT"
				},
				{
					"value": "Analyst",
					"key": "EMPLOYEE_TYPE"
				}
			]
		},
		{
			"municipalityId": "2281",
			"createdBy": "User1",
			"registrationNumber": "2023-2281-123",
			"created": "2023-06-28T12:01:00+02:00",
			"confidentiality": {
				"confidential": false
			},
			"description": "Document 1",
			"archive": false,
			"id": "159c10bf-1b32-471b-b2d3-c4b4b13ea152",
			"documentData": [
				{
					"fileName": "file1.jpg",
					"fileSizeInBytes": 5068,
					"id": "faa3547e-f775-4799-9ac0-e07fab1df362",
					"mimeType": "image/jpeg"
				}
			],
			"type": "EMPLOYEE_CERTIFICATE",
			"revision": 1,
			"metadataList": [
				{
					"value": "value-1",
					"key": "document1-key1"
				},
				{
					"value": "Company B",
					"key": "EMPLOYEE_UNIT"
				},
				{
					"value": "Manager",
					"key": "EMPLOYEE_TYPE"
				}
			]
		}
	],
	"_meta": {
		"totalRecords": 30,
		"limit": 3,
		"count": 3,
		"totalPages": 10,
		"page": 0
	}
}
