{
  "documents": [
    {
      "id": "fe9a0099-e407-4350-aaf2-f47edb20a770",
      "municipalityId": "2281",
      "registrationNumber": "2024-2281-755",
      "revision": 1,
      "confidentiality": {
        "confidential": false,
        "legalCitation": "Law §7.2"
      },
      "description": "Generated Document 15",
      "created": "2024-01-10T08:33:07+01:00",
      "createdBy": "User4",
      "archive": false,
      "metadataList": [
        {
          "key": "EMPLOYEE_UNIT",
          "value": "Company B"
        },
        {
          "key": "EMPLOYEE_TYPE",
          "value": "Manager"
        }
      ],
      "documentData": [],
      "type": "MISSPELLED"
    },
    {
      "id": "fe6a0099-e407-4350-aaf2-f47edb20a770",
      "municipalityId": "2281",
      "registrationNumber": "2024-2281-755",
      "revision": 2,
      "confidentiality": {
        "confidential": false,
        "legalCitation": "Law §7.2"
      },
      "description": "Generated Document 20",
      "created": "2024-04-06T08:33:07+02:00",
      "createdBy": "User5",
      "archive": false,
      "metadataList": [],
      "documentData": [],
      "type": "CONFIDENTIALITY_AGREEMENT"
    },
    {
      "id": "f182fd95-7a17-4cb7-843b-abf1f8ce8ce7",
      "municipalityId": "2281",
      "registrationNumber": "2024-2281-632",
      "revision": 1,
      "confidentiality": {
        "confidential": false,
        "legalCitation": "Law §7.2"
      },
      "description": "Generated Document 12",
      "created": "2024-01-28T08:33:07+01:00",
      "createdBy": "User2",
      "archive": false,
      "metadataList": [
        {
          "key": "EMPLOYEE_UNIT",
          "value": "Company B"
        },
        {
          "key": "EMPLOYEE_TYPE",
          "value": "Developer"
        }
      ],
      "documentData": [],
      "type": "CONFIDENTIALITY_AGREEMENT"
    },
    {
      "id": "e4c860ad-fce3-431e-965f-0229e5610fb7",
      "municipalityId": "2281",
      "registrationNumber": "2024-2281-200",
      "revision": 1,
      "confidentiality": {
        "confidential": false,
        "legalCitation": "Law §7.2"
      },
      "description": "Generated Document 5",
      "created": "2024-08-23T08:31:00+02:00",
      "createdBy": "User1",
      "archive": true,
      "metadataList": [
        {
          "key": "EMPLOYEE_UNIT",
          "value": "Startup Y"
        },
        {
          "key": "EMPLOYEE_TYPE",
          "value": "Analyst"
        }
      ],
      "documentData": [],
      "type": "EMPLOYEE_CERTIFICATE"
    },
    {
      "id": "df8e4237-4369-45e7-a365-3f46741814d0",
      "municipalityId": "2281",
      "registrationNumber": "2024-2281-382",
      "revision": 1,
      "confidentiality": {
        "confidential": false,
        "legalCitation": "Law §7.2"
      },
      "description": "Generated Document 8",
      "created": "2024-06-02T08:31:00+02:00",
      "createdBy": "User4",
      "archive": false,
      "metadataList": [
        {
          "key": "EMPLOYEE_UNIT",
          "value": "Organization X"
        },
        {
          "key": "EMPLOYEE_TYPE",
          "value": "Consultant"
        }
      ],
      "documentData": [],
      "type": "MISSPELLED"
    },
    {
      "id": "db983069-1a9f-4e6a-8b21-865ebd2fb902",
      "municipalityId": "2281",
      "registrationNumber": "2024-2281-252",
      "revision": 1,
      "confidentiality": {
        "confidential": false,
        "legalCitation": "Law §7.1"
      },
      "description": "Generated Document 16",
      "created": "2024-08-27T08:33:07+02:00",
      "createdBy": "User6",
      "archive": true,
      "metadataList": [
        {
          "key": "EMPLOYEE_UNIT",
          "value": "Company B"
        },
        {
          "key": "EMPLOYEE_TYPE",
          "value": "Consultant"
        }
      ],
      "documentData": [],
      "type": "EMPLOYEE_CERTIFICATE"
    },
    {
      "id": "db933069-1a9f-4e6a-8b21-865ebd2fb902",
      "municipalityId": "2281",
      "registrationNumber": "2024-2281-252",
      "revision": 2,
      "confidentiality": {
        "confidential": false,
        "legalCitation": "Law §7.2"
      },
      "description": "Generated Document 20",
      "created": "2024-04-06T08:33:07+02:00",
      "createdBy": "User2",
      "archive": false,
      "metadataList": [],
      "documentData": [],
      "type": "CONFIDENTIALITY_AGREEMENT"
    },
    {
      "id": "c3ee6cd8-d9e1-499c-b483-a9956b43ab7d",
      "municipalityId": "2281",
      "registrationNumber": "2024-2281-370",
      "revision": 1,
      "confidentiality": {
        "confidential": false
      },
      "description": "Generated Document 3",
      "created": "2024-09-10T08:31:00+02:00",
      "createdBy": "User3",
      "archive": true,
      "metadataList": [
        {
          "key": "EMPLOYEE_UNIT",
          "value": "Startup Y"
        },
        {
          "key": "EMPLOYEE_TYPE",
          "value": "Manager"
        }
      ],
      "documentData": [],
      "type": "EMPLOYEE_CERTIFICATE"
    },
    {
      "id": "9f2e05c4-a06d-4fed-b487-2003c591bc6a",
      "municipalityId": "2281",
      "registrationNumber": "2024-2281-232",
      "revision": 1,
      "confidentiality": {
        "confidential": false
      },
      "description": "Generated Document 13",
      "created": "2024-08-31T08:33:07+02:00",
      "createdBy": "User1",
      "archive": false,
      "metadataList": [
        {
          "key": "EMPLOYEE_UNIT",
          "value": "Organization X"
        },
        {
          "key": "EMPLOYEE_TYPE",
          "value": "Engineer"
        }
      ],
      "documentData": [],
      "type": "MISSPELLED"
    },
    {
      "id": "8efd63a3-b525-4581-8b0b-9759f381a5a5",
      "municipalityId": "2281",
      "registrationNumber": "2023-2281-123",
      "revision": 2,
      "confidentiality": {
        "confidential": false
      },
      "description": "Document 1",
      "created": "2023-06-28T12:02:00+02:00",
      "createdBy": "User2",
      "archive": false,
      "metadataList": [
        {
          "key": "document1-key1",
          "value": "value-1"
        },
        {
          "key": "document1-key2",
          "value": "value-2"
        },
        {
          "key": "EMPLOYEE_UNIT",
          "value": "Company C"
        },
        {
          "key": "EMPLOYEE_TYPE",
          "value": "Developer"
        }
      ],
      "documentData": [
        {
          "id": "50167fa9-6b50-428e-9383-b6cbfaffc63b",
          "fileName": "file2.jpg",
          "mimeType": "image/jpeg",
          "fileSizeInBytes": 5068
        }
      ],
      "type": "EMPLOYEE_CERTIFICATE"
    },
    {
      "id": "8ad5ecbf-15e5-4572-9b80-96bbfc2145b6",
      "municipalityId": "2281",
      "registrationNumber": "2024-2281-139",
      "revision": 2,
      "confidentiality": {
        "confidential": false,
        "legalCitation": "Law §7.2"
      },
      "description": "Generated Document 20",
      "created": "2024-04-06T08:33:07+02:00",
      "createdBy": "User6",
      "archive": false,
      "metadataList": [],
      "documentData": [
        {
          "id": "abc078aa-9335-4b21-b04c-630e27ade51e",
          "fileName": "to-be-removed.jpg",
          "mimeType": "image/jpeg",
          "fileSizeInBytes": 5068
        }
      ],
      "type": "CONFIDENTIALITY_AGREEMENT"
    },
    {
      "id": "84ae9dbe-159a-472f-9dc7-8ecb03c2c3c1",
      "municipalityId": "2281",
      "registrationNumber": "2024-2281-639",
      "revision": 1,
      "confidentiality": {
        "confidential": false
      },
      "description": "Generated Document 6",
      "created": "2024-08-29T08:31:00+02:00",
      "createdBy": "User4",
      "archive": false,
      "metadataList": [
        {
          "key": "EMPLOYEE_UNIT",
          "value": "Startup Y"
        },
        {
          "key": "EMPLOYEE_TYPE",
          "value": "Analyst"
        }
      ],
      "documentData": [],
      "type": "HOLIDAY_EXCHANGE"
    },
    {
      "id": "7f2e05c4-a06d-4fed-b487-2003c591bc6a",
      "municipalityId": "2281",
      "registrationNumber": "2024-2281-232",
      "revision": 2,
      "confidentiality": {
        "confidential": false,
        "legalCitation": "Law §7.2"
      },
      "description": "Generated Document 20",
      "created": "2024-04-06T08:33:07+02:00",
      "createdBy": "User2",
      "archive": false,
      "metadataList": [],
      "documentData": [],
      "type": "CONFIDENTIALITY_AGREEMENT"
    },
    {
      "id": "69d31844-1810-4857-bdb9-f7c533b675b1",
      "municipalityId": "2281",
      "registrationNumber": "2024-2281-810",
      "revision": 1,
      "confidentiality": {
        "confidential": false,
        "legalCitation": "Law §7.2"
      },
      "description": "Generated Document 9",
      "created": "2024-07-02T08:31:00+02:00",
      "createdBy": "User2",
      "archive": true,
      "metadataList": [
        {
          "key": "EMPLOYEE_UNIT",
          "value": "Company A"
        },
        {
          "key": "EMPLOYEE_TYPE",
          "value": "Developer"
        }
      ],
      "documentData": [],
      "type": "EMPLOYEE_CERTIFICATE"
    },
    {
      "id": "676eaf7a-d609-4885-9743-2dbcdffe6628",
      "municipalityId": "2281",
      "registrationNumber": "2024-2281-417",
      "revision": 1,
      "confidentiality": {
        "confidential": false,
        "legalCitation": "Law §7.1"
      },
      "description": "Generated Document 1",
      "created": "2024-06-23T08:31:00+02:00",
      "createdBy": "User5",
      "archive": false,
      "metadataList": [
        {
          "key": "EMPLOYEE_UNIT",
          "value": "Company C"
        },
        {
          "key": "EMPLOYEE_TYPE",
          "value": "Manager"
        }
      ],
      "documentData": [],
      "type": "MISSPELLED"
    },
    {
      "id": "612dc8d0-e6b7-426c-abcc-c9b49ae1e7e2",
      "municipalityId": "2281",
      "registrationNumber": "2023-2281-123",
      "revision": 3,
      "confidentiality": {
        "confidential": false
      },
      "description": "Document 1",
      "created": "2023-06-28T12:03:00+02:00",
      "createdBy": "User3",
      "archive": true,
      "metadataList": [
        {
          "key": "document1-key1",
          "value": "value-1"
        },
        {
          "key": "document1-key2",
          "value": "value-2"
        },
        {
          "key": "document1-key3",
          "value": "value-3"
        },
        {
          "key": "document1-key4",
          "value": "value-4"
        }
      ],
      "documentData": [
        {
          "id": "4f0a04af-942d-4ad2-b2d9-151887fc995c",
          "fileName": "file3.jpg",
          "mimeType": "image/jpeg",
          "fileSizeInBytes": 5068
        }
      ],
      "type": "EMPLOYEE_CERTIFICATE"
    },
    {
      "id": "4ad5ecbf-15e5-4572-9b80-96bbfc2145b6",
      "municipalityId": "2281",
      "registrationNumber": "2024-2281-139",
      "revision": 1,
      "confidentiality": {
        "confidential": false,
        "legalCitation": "Law §7.2"
      },
      "description": "Generated Document 20",
      "created": "2024-04-06T08:33:07+02:00",
      "createdBy": "User3",
      "archive": false,
      "metadataList": [
        {
          "key": "EMPLOYEE_UNIT",
          "value": "Startup Y"
        },
        {
          "key": "EMPLOYEE_TYPE",
          "value": "Developer"
        }
      ],
      "documentData": [],
      "type": "CONFIDENTIALITY_AGREEMENT"
    },
    {
      "id": "37a7aefa-5f24-460e-817b-f089b7dd84be",
      "municipalityId": "2281",
      "registrationNumber": "2024-2281-646",
      "revision": 1,
      "confidentiality": {
        "confidential": false,
        "legalCitation": "Law §7.1"
      },
      "description": "Generated Document 14",
      "created": "2024-06-28T08:33:07+02:00",
      "createdBy": "User1",
      "archive": false,
      "metadataList": [
        {
          "key": "EMPLOYEE_UNIT",
          "value": "Organization X"
        },
        {
          "key": "EMPLOYEE_TYPE",
          "value": "Consultant"
        }
      ],
      "documentData": [],
      "type": "MISSPELLED"
    },
    {
      "id": "22a4ecd5-b406-49d3-b7de-0922ff2f3b95",
      "municipalityId": "2281",
      "registrationNumber": "2024-2281-797",
      "revision": 2,
      "confidentiality": {
        "confidential": false,
        "legalCitation": "Law §7.2"
      },
      "description": "Generated Document 20",
      "created": "2024-04-06T08:33:07+02:00",
      "createdBy": "User2",
      "archive": false,
      "metadataList": [],
      "documentData": [],
      "type": "CONFIDENTIALITY_AGREEMENT"
    },
    {
      "id": "1cc8599b-8726-4cf7-869d-36737044400c",
      "municipalityId": "2281",
      "registrationNumber": "2024-2281-283",
      "revision": 1,
      "confidentiality": {
        "confidential": false,
        "legalCitation": "Law §7.2"
      },
      "description": "Generated Document 4",
      "created": "2024-01-23T08:31:00+01:00",
      "createdBy": "User2",
      "archive": false,
      "metadataList": [
        {
          "key": "EMPLOYEE_UNIT",
          "value": "Organization X"
        },
        {
          "key": "EMPLOYEE_TYPE",
          "value": "Manager"
        }
      ],
      "documentData": [],
      "type": "EMPLOYEE_CERTIFICATE"
    }
  ],
  "_meta": {
    "page": 0,
    "limit": 20,
    "count": 20,
    "totalRecords": 23,
    "totalPages": 2
  }
}
