{
	"documents": [
		{
			"municipalityId": "2281",
			"createdBy": "User2",
			"registrationNumber": "2024-2281-283",
			"created": "2024-01-23T08:31:00+01:00",
			"confidentiality": {
				"legalCitation": "Law ยง7.2",
				"confidential": false
			},
			"description": "Generated Document 4",
			"archive": false,
			"id": "1cc8599b-8726-4cf7-869d-36737044400c",
			"documentData": [],
			"type": "EMPLOYEE_CERTIFICATE",
			"revision": 1,
			"metadataList": [
				{
					"value": "Organization X",
					"key": "EMPLOYEE_UNIT"
				},
				{
					"value": "Manager",
					"key": "EMPLOYEE_TYPE"
				}
			]
		},
		{
			"municipalityId": "2281",
			"createdBy": "User2",
			"registrationNumber": "2024-2281-403",
			"created": "2024-02-22T08:31:00+01:00",
			"confidentiality": {
				"confidential": true
			},
			"description": "Generated Document 2",
			"archive": false,
			"id": "34095a16-68c5-48f8-ac1e-9d6b7dd08562",
			"documentData": [],
			"type": "EMPLOYEE_CERTIFICATE",
			"revision": 1,
			"metadataList": [
				{
					"value": "Company B",
					"key": "EMPLOYEE_UNIT"
				},
				{
					"value": "Developer",
					"key": "EMPLOYEE_TYPE"
				}
			]
		},
		{
			"municipalityId": "2281",
			"createdBy": "User4",
			"registrationNumber": "2024-2281-465",
			"created": "2024-08-03T08:33:07+02:00",
			"confidentiality": {
				"confidential": true
			},
			"description": "Generated Document 19",
			"archive": false,
			"id": "5a728f56-2fb1-460e-9158-7a4d5775e80f",
			"documentData": [],
			"type": "EMPLOYEE_CERTIFICATE",
			"revision": 1,
			"metadataList": [
				{
					"value": "Company B",
					"key": "EMPLOYEE_UNIT"
				},
				{
					"value": "Analyst",
					"key": "EMPLOYEE_TYPE"
				}
			]
		}
	],
	"_meta": {
		"totalRecords": 7,
		"limit": 3,
		"count": 3,
		"totalPages": 3,
		"page": 0
	}
}
